Suite/Test/Step Name,Browser,Description,Start time,End time,Duration,Status
cc selector,,,2018-03-22 23:40:07,2018-03-22 23:40:44,36.655s,FAILED
,,,,,,
Test Cases/Advertising banner,,,2018-03-22 23:40:09,2018-03-22 23:40:34,24.976s,FAILED
openBrowser,,,2018-03-22 23:40:11,2018-03-22 23:40:34,22.716s,FAILED
,,,,,,
Test Cases/Show Filters,,,2018-03-22 23:40:34,2018-03-22 23:40:41,7.323s,FAILED
openBrowser,,,2018-03-22 23:40:35,2018-03-22 23:40:41,6.456s,FAILED
,,,,,,
Test Cases/card elements,,,2018-03-22 23:40:41,2018-03-22 23:40:44,2.716s,FAILED
openBrowser,,,2018-03-22 23:40:42,2018-03-22 23:40:44,2.204s,FAILED
