Suite/Test/Step Name,Browser,Description,Start time,End time,Duration,Status
cc selector,Firefox 58.0,,2018-03-21 11:39:40,2018-03-21 11:40:10,29.808s,PASSED
,,,,,,
Test Cases/Advertising banner,Firefox 58.0,,2018-03-21 11:39:41,2018-03-21 11:39:52,10.830s,PASSED
openBrowser,Firefox 58.0,,2018-03-21 11:39:42,2018-03-21 11:39:48,5.916s,PASSED
navigateToUrl,Firefox 58.0,,2018-03-21 11:39:48,2018-03-21 11:39:51,3.738s,PASSED
verifyElementPresent,Firefox 58.0,,2018-03-21 11:39:51,2018-03-21 11:39:52,0.390s,PASSED
verifyElementPresent,Firefox 58.0,,2018-03-21 11:39:52,2018-03-21 11:39:52,0.044s,PASSED
verifyElementPresent,Firefox 58.0,,2018-03-21 11:39:52,2018-03-21 11:39:52,0.040s,PASSED
,,,,,,
Test Cases/Show Filters,Firefox 58.0,,2018-03-21 11:39:52,2018-03-21 11:40:01,9.230s,PASSED
openBrowser,Firefox 58.0,,2018-03-21 11:39:52,2018-03-21 11:39:57,4.603s,PASSED
navigateToUrl,Firefox 58.0,,2018-03-21 11:39:57,2018-03-21 11:40:00,3.671s,PASSED
verifyElementPresent,Firefox 58.0,,2018-03-21 11:40:00,2018-03-21 11:40:01,0.059s,PASSED
click,Firefox 58.0,,2018-03-21 11:40:01,2018-03-21 11:40:01,0.343s,PASSED
verifyElementPresent,Firefox 58.0,,2018-03-21 11:40:01,2018-03-21 11:40:01,0.028s,PASSED
verifyElementPresent,Firefox 58.0,,2018-03-21 11:40:01,2018-03-21 11:40:01,0.037s,PASSED
verifyElementPresent,Firefox 58.0,,2018-03-21 11:40:01,2018-03-21 11:40:01,0.026s,PASSED
verifyElementPresent,Firefox 58.0,,2018-03-21 11:40:01,2018-03-21 11:40:01,0.031s,PASSED
verifyElementPresent,Firefox 58.0,,2018-03-21 11:40:01,2018-03-21 11:40:01,0.028s,PASSED
,,,,,,
Test Cases/card elements,Firefox 58.0,,2018-03-21 11:40:01,2018-03-21 11:40:10,8.668s,PASSED
openBrowser,Firefox 58.0,,2018-03-21 11:40:01,2018-03-21 11:40:06,4.540s,PASSED
navigateToUrl,Firefox 58.0,,2018-03-21 11:40:06,2018-03-21 11:40:10,3.871s,PASSED
verifyElementPresent,Firefox 58.0,,2018-03-21 11:40:10,2018-03-21 11:40:10,0.001s,NOT_RUN
verifyElementPresent,Firefox 58.0,,2018-03-21 11:40:10,2018-03-21 11:40:10,0.028s,PASSED
verifyElementPresent,Firefox 58.0,,2018-03-21 11:40:10,2018-03-21 11:40:10,0.014s,PASSED
verifyElementPresent,Firefox 58.0,,2018-03-21 11:40:10,2018-03-21 11:40:10,0.018s,PASSED
