Suite/Test/Step Name,Browser,Description,Start time,End time,Duration,Status
cc selector,Firefox 58.0,,2018-03-23 11:18:31,2018-03-23 11:20:10,1m - 38.835s,FAILED
,,,,,,
Test Cases/Advertising banner,Firefox 58.0,,2018-03-23 11:18:33,2018-03-23 11:19:00,27.013s,PASSED
openBrowser,Firefox 58.0,,2018-03-23 11:18:35,2018-03-23 11:18:52,16.634s,PASSED
navigateToUrl,Firefox 58.0,,2018-03-23 11:18:52,2018-03-23 11:18:59,6.748s,PASSED
verifyElementPresent,Firefox 58.0,,2018-03-23 11:18:59,2018-03-23 11:19:00,0.785s,PASSED
verifyElementPresent,Firefox 58.0,,2018-03-23 11:19:00,2018-03-23 11:19:00,0.056s,PASSED
verifyElementPresent,Firefox 58.0,,2018-03-23 11:19:00,2018-03-23 11:19:00,0.019s,PASSED
,,,,,,
Test Cases/Show Filters,Firefox 58.0,,2018-03-23 11:19:00,2018-03-23 11:19:20,20.455s,PASSED
openBrowser,Firefox 58.0,,2018-03-23 11:19:00,2018-03-23 11:19:14,13.302s,PASSED
waitForPageLoad,Firefox 58.0,,2018-03-23 11:19:14,2018-03-23 11:19:14,0.114s,PASSED
navigateToUrl,Firefox 58.0,,2018-03-23 11:19:14,2018-03-23 11:19:18,4.586s,PASSED
verifyElementPresent,Firefox 58.0,,2018-03-23 11:19:18,2018-03-23 11:19:19,0.096s,PASSED
click,Firefox 58.0,,2018-03-23 11:19:19,2018-03-23 11:19:19,0.463s,PASSED
verifyElementPresent,Firefox 58.0,,2018-03-23 11:19:19,2018-03-23 11:19:19,0.096s,PASSED
verifyElementPresent,Firefox 58.0,,2018-03-23 11:19:19,2018-03-23 11:19:19,0.048s,PASSED
verifyElementPresent,Firefox 58.0,,2018-03-23 11:19:19,2018-03-23 11:19:19,0.020s,PASSED
verifyElementPresent,Firefox 58.0,,2018-03-23 11:19:19,2018-03-23 11:19:19,0.017s,PASSED
verifyElementPresent,Firefox 58.0,,2018-03-23 11:19:19,2018-03-23 11:19:20,0.985s,PASSED
,,,,,,
Test Cases/card elements,Firefox 58.0,,2018-03-23 11:19:20,2018-03-23 11:20:10,49.435s,FAILED
openBrowser,Firefox 58.0,,2018-03-23 11:19:21,2018-03-23 11:19:31,10.372s,PASSED
navigateToUrl,Firefox 58.0,,2018-03-23 11:19:31,2018-03-23 11:19:36,4.487s,PASSED
verifyElementPresent,Firefox 58.0,,2018-03-23 11:19:36,2018-03-23 11:19:36,0.002s,NOT_RUN
verifyElementPresent,Firefox 58.0,,2018-03-23 11:19:36,2018-03-23 11:19:36,0.110s,PASSED
verifyElementPresent,Firefox 58.0,,2018-03-23 11:19:36,2018-03-23 11:19:36,0.066s,PASSED
verifyElementPresent,Firefox 58.0,,2018-03-23 11:19:36,2018-03-23 11:19:36,0.055s,PASSED
verifyElementPresent,Firefox 58.0,,2018-03-23 11:19:36,2018-03-23 11:19:36,0.066s,PASSED
verifyElementPresent,Firefox 58.0,,2018-03-23 11:19:36,2018-03-23 11:19:36,0.065s,PASSED
verifyElementPresent,Firefox 58.0,,2018-03-23 11:19:36,2018-03-23 11:19:36,0.065s,PASSED
verifyElementPresent,Firefox 58.0,,2018-03-23 11:19:36,2018-03-23 11:19:36,0.076s,PASSED
verifyElementPresent,Firefox 58.0,,2018-03-23 11:19:36,2018-03-23 11:19:37,0.657s,PASSED
click,Firefox 58.0,,2018-03-23 11:19:37,2018-03-23 11:20:10,32.601s,FAILED
