Suite/Test/Step Name,Browser,Description,Start time,End time,Duration,Status
cc selector,Firefox 58.0,,2018-03-23 11:35:25,2018-03-23 11:35:42,17.422s,PASSED
,,,,,,
Test Cases/Advertising banner,Firefox 58.0,,2018-03-23 11:35:25,2018-03-23 11:35:41,15.869s,PASSED
openBrowser,Firefox 58.0,,2018-03-23 11:35:26,2018-03-23 11:35:34,7.942s,PASSED
navigateToUrl,Firefox 58.0,,2018-03-23 11:35:34,2018-03-23 11:35:40,5.958s,PASSED
verifyElementPresent,Firefox 58.0,,2018-03-23 11:35:40,2018-03-23 11:35:41,0.460s,PASSED
verifyElementPresent,Firefox 58.0,,2018-03-23 11:35:41,2018-03-23 11:35:41,0.033s,PASSED
verifyElementPresent,Firefox 58.0,,2018-03-23 11:35:41,2018-03-23 11:35:41,0.021s,PASSED
