Suite/Test/Step Name,Browser,Description,Start time,End time,Duration,Status
cc selector,,,2018-03-21 11:42:23,2018-03-21 11:42:51,27.723s,FAILED
,,,,,,
Test Cases/Advertising banner,,,2018-03-21 11:42:23,2018-03-21 11:42:45,21.459s,FAILED
openBrowser,,,2018-03-21 11:42:24,2018-03-21 11:42:45,20.802s,FAILED
,,,,,,
Test Cases/Show Filters,,,2018-03-21 11:42:45,2018-03-21 11:42:48,3.325s,FAILED
openBrowser,,,2018-03-21 11:42:45,2018-03-21 11:42:48,3.002s,FAILED
,,,,,,
Test Cases/card elements,,,2018-03-21 11:42:48,2018-03-21 11:42:50,2.241s,FAILED
openBrowser,,,2018-03-21 11:42:48,2018-03-21 11:42:50,2.018s,FAILED
